module gitlab.com/josafat.vargas.gamboa/oauth_api/oauth_api/src

go 1.18

require (
	github.com/gin-gonic/gin v1.7.7
	github.com/gocql/gocql v1.0.0
	github.com/mercadolibre/golang-restclient v0.0.0-20170701022150-51958130a0a0
	github.kyndryl.net/Josafat-Vargas-Gamboa/Bookstore-utils-go v0.0.1
)

require (
	github.com/gin-contrib/sse v0.1.0 // indirect
	github.com/go-playground/locales v0.14.0 // indirect
	github.com/go-playground/universal-translator v0.18.0 // indirect
	github.com/go-playground/validator/v10 v10.10.1 // indirect
	github.com/golang/protobuf v1.5.2 // indirect
	github.com/golang/snappy v0.0.4 // indirect
	github.com/hailocab/go-hostpool v0.0.0-20160125115350-e80d13ce29ed // indirect
	github.com/json-iterator/go v1.1.12 // indirect
	github.com/leodido/go-urn v1.2.1 // indirect
	github.com/mattn/go-isatty v0.0.14 // indirect
	github.com/modern-go/concurrent v0.0.0-20180306012644-bacd9c7ef1dd // indirect
	github.com/modern-go/reflect2 v1.0.2 // indirect
	github.com/ugorji/go/codec v1.2.7 // indirect
	go.uber.org/atomic v1.9.0 // indirect
	go.uber.org/multierr v1.8.0 // indirect
	go.uber.org/zap v1.21.0 // indirect
	golang.org/x/crypto v0.0.0-20220331220935-ae2d96664a29 // indirect
	golang.org/x/sys v0.0.0-20220405052023-b1e9470b6e64 // indirect
	golang.org/x/text v0.3.7 // indirect
	google.golang.org/protobuf v1.28.0 // indirect
	gopkg.in/inf.v0 v0.9.1 // indirect
	gopkg.in/yaml.v2 v2.4.0 // indirect
)
